{
    "0": {
        "benchmarks": {
            "memory.top_10_mobile": {
                "end": 9
            }
        }
    },
    "1": {
        "benchmarks": {
            "memory.top_10_mobile": {
                "begin": 9
            }
        }
    },
    "2": {
        "benchmarks": {
            "speedometer": {},
            "speedometer2": {}
        }
    },
    "3": {
        "benchmarks": {
            "startup.mobile": {},
            "system_health.common_mobile": {
                "end": 7
            }
        }
    },
    "4": {
        "benchmarks": {
            "system_health.common_mobile": {
                "begin": 7,
                "end": 20
            }
        }
    },
    "5": {
        "benchmarks": {
            "system_health.common_mobile": {
                "begin": 20,
                "end": 47
            }
        }
    },
    "6": {
        "benchmarks": {
            "system_health.common_mobile": {
                "begin": 47,
                "end": 78
            }
        }
    },
    "7": {
        "benchmarks": {
            "system_health.common_mobile": {
                "begin": 78
            },
            "system_health.memory_mobile": {
                "end": 9
            }
        }
    },
    "8": {
        "benchmarks": {
            "system_health.memory_mobile": {
                "begin": 9,
                "end": 17
            }
        }
    },
    "9": {
        "benchmarks": {
            "system_health.memory_mobile": {
                "begin": 17,
                "end": 22
            }
        }
    },
    "10": {
        "benchmarks": {
            "system_health.memory_mobile": {
                "begin": 22,
                "end": 29
            }
        }
    },
    "11": {
        "benchmarks": {
            "system_health.memory_mobile": {
                "begin": 29,
                "end": 41
            }
        }
    },
    "12": {
        "benchmarks": {
            "system_health.memory_mobile": {
                "begin": 41,
                "end": 54
            }
        }
    },
    "13": {
        "benchmarks": {
            "system_health.memory_mobile": {
                "begin": 54,
                "end": 66
            }
        }
    },
    "14": {
        "benchmarks": {
            "system_health.memory_mobile": {
                "begin": 66,
                "end": 74
            }
        }
    },
    "15": {
        "benchmarks": {
            "system_health.memory_mobile": {
                "begin": 74,
                "end": 81
            }
        }
    },
    "16": {
        "benchmarks": {
            "system_health.memory_mobile": {
                "begin": 81
            },
            "system_health.webview_startup": {},
            "v8.browsing_mobile": {
                "end": 11
            }
        }
    },
    "17": {
        "benchmarks": {
            "v8.browsing_mobile": {
                "begin": 11,
                "end": 22
            }
        }
    },
    "18": {
        "benchmarks": {
            "v8.browsing_mobile": {
                "begin": 22
            }
        }
    },
    "extra_infos": {
        "num_stories": 233,
        "predicted_min_shard_time": 2394.0,
        "predicted_min_shard_index": 8,
        "predicted_max_shard_time": 2796.0,
        "predicted_max_shard_index": 15,
        "shard #0": 2510.0,
        "shard #1": 2660.0,
        "shard #2": 2598.0,
        "shard #3": 2568.0,
        "shard #4": 2478.0,
        "shard #5": 2674.0,
        "shard #6": 2640.0,
        "shard #7": 2716.0,
        "shard #8": 2394.0,
        "shard #9": 2502.0,
        "shard #10": 2610.0,
        "shard #11": 2538.0,
        "shard #12": 2694.0,
        "shard #13": 2526.0,
        "shard #14": 2448.0,
        "shard #15": 2796.0,
        "shard #16": 2566.0,
        "shard #17": 2500.0,
        "shard #18": 2624.0
    }
}